// Jest Snapshot v1, https://goo.gl/fbAQLP

exports[`GlobalItem GlobalItemBase should render an InteractionStateManager 1`] = `
<InteractionStateManager>
  <Component />
</InteractionStateManager>
`;

exports[`GlobalItem GlobalItemBase should render an item wrapper with the globalItem.itemWrapper theme styles when size is large: largeItem 1`] = `
<InteractionStateManager>
  <Component />
</InteractionStateManager>
`;

exports[`GlobalItem GlobalItemBase should render an item wrapper with the globalItem.itemWrapper theme styles when size is small: smallItem 1`] = `
<InteractionStateManager>
  <Component />
</InteractionStateManager>
`;

exports[`GlobalItem GlobalItemBase should render the GlobalItem primitive 1`] = `
<WithTheme(GlobalNavigationItemPrimitive)
  icon={[Function]}
  isActive={false}
  isFocused={false}
  isHover={false}
  label=""
  size="large"
  styles={[Function]}
/>
`;

exports[`GlobalItem should render correctly 1`] = `
.emotion-3 {
  width: 100%;
  -webkit-align-items: center;
  -webkit-box-align: center;
  -ms-flex-align: center;
  align-items: center;
  display: -webkit-box;
  display: -webkit-flex;
  display: -ms-flexbox;
  display: flex;
  -webkit-flex-direction: column;
  -ms-flex-direction: column;
  flex-direction: column;
  -webkit-box-pack: justify;
  -webkit-justify-content: space-between;
  -ms-flex-pack: justify;
  justify-content: space-between;
}

.emotion-2 {
  display: inline-block;
}

.emotion-1.emotion-1 {
  -webkit-align-items: center;
  -webkit-box-align: center;
  -ms-flex-align: center;
  align-items: center;
  border: 0;
  border-radius: 50%;
  color: #FFFFFF;
  cursor: pointer;
  display: -webkit-box;
  display: -webkit-flex;
  display: -ms-flexbox;
  display: flex;
  font-size: inherit;
  -webkit-box-pack: center;
  -webkit-justify-content: center;
  -ms-flex-pack: center;
  justify-content: center;
  line-height: 1;
  outline: none;
  padding: 0;
  position: relative;
  height: 40px;
  width: 40px;
  background-color: #0747A6;
}

.emotion-1.emotion-1:focus {
  box-shadow: 0 0 0 2px #4C9AFF;
}

.emotion-0 {
  pointer-events: none;
}

.c0 {
  color: inherit;
  display: inline-block;
  fill: currentColor;
  height: 32px;
  position: relative;
  -webkit-user-select: none;
  -moz-user-select: none;
  -ms-user-select: none;
  user-select: none;
}

.c0 > svg {
  fill: inherit;
  height: 100%;
  left: 0;
  position: absolute;
  top: 0;
  width: 100%;
}

.c0 > canvas {
  display: block;
  height: 100%;
  visibility: hidden;
}

.c0 stop {
  stop-color: currentColor;
}

<WithAnalyticsContext(WithAnalyticsEvents(WithTheme(GlobalItemBase)))
  icon={[Function]}
>
  <AnalyticsContext
    data={
      Object {
        "componentName": "globalItem",
      }
    }
  >
    <WithAnalyticsEvents(WithTheme(GlobalItemBase))
      icon={[Function]}
    >
      <WithTheme(GlobalItemBase)
        createAnalyticsEvent={[Function]}
        icon={[Function]}
        onClick={[Function]}
      >
        <Component
          createAnalyticsEvent={[Function]}
          icon={[Function]}
          onClick={[Function]}
          theme={Object {}}
        >
          <GlobalItemBase
            createAnalyticsEvent={[Function]}
            icon={[Function]}
            label=""
            onClick={[Function]}
            size="large"
            styles={[Function]}
            theme={
              Object {
                "mode": Object {
                  "contentNav": [Function],
                  "globalItem": [Function],
                  "globalNav": [Function],
                  "heading": [Function],
                  "item": [Function],
                  "section": [Function],
                  "separator": [Function],
                  "skeletonItem": [Function],
                },
              }
            }
          >
            <div
              className="emotion-4"
            >
              <InteractionStateManager>
                <div
                  className="emotion-3"
                  onBlur={[Function]}
                  onFocus={[Function]}
                  onMouseDown={[Function]}
                  onMouseEnter={[Function]}
                  onMouseLeave={[Function]}
                  onMouseUp={[Function]}
                  role="presentation"
                >
                  <WithTheme(GlobalNavigationItemPrimitive)
                    icon={[Function]}
                    isActive={false}
                    isFocused={false}
                    isHover={false}
                    label=""
                    onClick={[Function]}
                    size="large"
                    styles={[Function]}
                  >
                    <Component
                      icon={[Function]}
                      isActive={false}
                      isFocused={false}
                      isHover={false}
                      label=""
                      onClick={[Function]}
                      size="large"
                      styles={[Function]}
                      theme={Object {}}
                    >
                      <GlobalNavigationItemPrimitive
                        dataset={
                          Object {
                            "data-testid": "GlobalNavigationItem",
                          }
                        }
                        icon={[Function]}
                        isActive={false}
                        isFocused={false}
                        isHover={false}
                        isSelected={false}
                        label=""
                        onClick={[Function]}
                        size="large"
                        styles={[Function]}
                        theme={
                          Object {
                            "mode": Object {
                              "contentNav": [Function],
                              "globalItem": [Function],
                              "globalNav": [Function],
                              "heading": [Function],
                              "item": [Function],
                              "section": [Function],
                              "separator": [Function],
                              "skeletonItem": [Function],
                            },
                          }
                        }
                      >
                        <Tooltip
                          delay={0}
                          hideTooltipOnClick={true}
                          hideTooltipOnMouseDown={true}
                          position="right"
                        >
                          <div
                            onBlur={[Function]}
                            onClick={[Function]}
                            onFocus={[Function]}
                            onMouseDown={[Function]}
                            onMouseOut={[Function]}
                            onMouseOver={[Function]}
                          >
                            <div
                              className="emotion-2"
                            >
                              <button
                                className="emotion-1"
                                data-testid="GlobalNavigationItem"
                                onClick={[Function]}
                              >
                                <div
                                  className="emotion-0"
                                >
                                  <icon
                                    label=""
                                    secondaryColor="inherit"
                                  >
                                    <AtlassianIcon
                                      iconColor="inherit"
                                      iconGradientStart="inherit"
                                      iconGradientStop="inherit"
                                      label=""
                                      size="medium"
                                      textColor="currentColor"
                                    >
                                      <Wrapper
                                        iconColor="inherit"
                                        iconGradientStart="inherit"
                                        iconGradientStop="inherit"
                                        label=""
                                        size="medium"
                                        svg={[Function]}
                                        textColor="currentColor"
                                      >
                                        <styled.span
                                          dangerouslySetInnerHTML={
                                            Object {
                                              "__html": "<canvas height=\\"32\\" width=\\"32\\" aria-hidden=\\"true\\"></canvas>
  <svg viewBox=\\"0 0 32 32\\" xmlns=\\"http://www.w3.org/2000/svg\\" focusable=\\"false\\" aria-hidden=\\"true\\">
    <defs>
      <linearGradient id=\\"uid1\\" x1=\\"14.8402\\" y1=\\"15.8324\\" x2=\\"8.6599\\" y2=\\"26.5369\\" gradientUnits=\\"userSpaceOnUse\\">
        <stop stop-color=\\"inherit\\" stop-opacity=\\"0.4\\" offset=\\"0%\\"></stop>
        <stop stop-color=\\"inherit\\" offset=\\"0.9228\\"></stop>
      </linearGradient>
    </defs>
    <path fill=\\"url(#uid1)\\" d=\\"M11.6397 14.0398C11.2789 13.643 10.7378 13.679 10.4852 14.148L4.64091 25.8728C4.42446 26.3418 4.74912 26.8829 5.25419 26.8829H13.4074C13.6599 26.8829 13.9125 26.7386 14.0207 26.4861C15.7885 22.8424 14.7061 17.3227 11.6397 14.0398Z\\" />
    <path fill=\\"inherit\\" d=\\"M15.9343 3.36124C12.6513 8.55622 12.8678 14.2923 15.0324 18.6215C17.1969 22.9506 18.8565 26.2336 18.9647 26.4861C19.0729 26.7386 19.3254 26.8829 19.578 26.8829H27.7312C28.2363 26.8829 28.597 26.3418 28.3445 25.8728C28.3445 25.8728 17.3774 3.93846 17.0887 3.39732C16.8723 2.89225 16.259 2.85618 15.9343 3.36124Z\\" />
  </svg>",
                                            }
                                          }
                                          iconColor="inherit"
                                          iconGradientStart="inherit"
                                          iconGradientStop="inherit"
                                          role="presentation"
                                          size="medium"
                                          textColor="currentColor"
                                        >
                                          <span
                                            className="c0"
                                            dangerouslySetInnerHTML={
                                              Object {
                                                "__html": "<canvas height=\\"32\\" width=\\"32\\" aria-hidden=\\"true\\"></canvas>
  <svg viewBox=\\"0 0 32 32\\" xmlns=\\"http://www.w3.org/2000/svg\\" focusable=\\"false\\" aria-hidden=\\"true\\">
    <defs>
      <linearGradient id=\\"uid1\\" x1=\\"14.8402\\" y1=\\"15.8324\\" x2=\\"8.6599\\" y2=\\"26.5369\\" gradientUnits=\\"userSpaceOnUse\\">
        <stop stop-color=\\"inherit\\" stop-opacity=\\"0.4\\" offset=\\"0%\\"></stop>
        <stop stop-color=\\"inherit\\" offset=\\"0.9228\\"></stop>
      </linearGradient>
    </defs>
    <path fill=\\"url(#uid1)\\" d=\\"M11.6397 14.0398C11.2789 13.643 10.7378 13.679 10.4852 14.148L4.64091 25.8728C4.42446 26.3418 4.74912 26.8829 5.25419 26.8829H13.4074C13.6599 26.8829 13.9125 26.7386 14.0207 26.4861C15.7885 22.8424 14.7061 17.3227 11.6397 14.0398Z\\" />
    <path fill=\\"inherit\\" d=\\"M15.9343 3.36124C12.6513 8.55622 12.8678 14.2923 15.0324 18.6215C17.1969 22.9506 18.8565 26.2336 18.9647 26.4861C19.0729 26.7386 19.3254 26.8829 19.578 26.8829H27.7312C28.2363 26.8829 28.597 26.3418 28.3445 25.8728C28.3445 25.8728 17.3774 3.93846 17.0887 3.39732C16.8723 2.89225 16.259 2.85618 15.9343 3.36124Z\\" />
  </svg>",
                                              }
                                            }
                                            role="presentation"
                                            size="medium"
                                          />
                                        </styled.span>
                                      </Wrapper>
                                    </AtlassianIcon>
                                  </icon>
                                </div>
                              </button>
                            </div>
                          </div>
                        </Tooltip>
                      </GlobalNavigationItemPrimitive>
                    </Component>
                  </WithTheme(GlobalNavigationItemPrimitive)>
                </div>
              </InteractionStateManager>
            </div>
          </GlobalItemBase>
        </Component>
      </WithTheme(GlobalItemBase)>
    </WithAnalyticsEvents(WithTheme(GlobalItemBase))>
  </AnalyticsContext>
</WithAnalyticsContext(WithAnalyticsEvents(WithTheme(GlobalItemBase)))>
`;
